<?xml version="1.0" encoding="utf-8"?>
<!DOCTYPE eagle SYSTEM "eagle.dtd">
<eagle version="8.4.1">
<drawing>
<settings>
<setting alwaysvectorfont="no"/>
<setting verticaltext="up"/>
</settings>
<grid distance="0.1" unitdist="inch" unit="inch" style="lines" multiple="1" display="no" altdistance="0.01" altunitdist="inch" altunit="inch"/>
<layers>
<layer number="1" name="Top" color="4" fill="1" visible="yes" active="yes"/>
<layer number="2" name="Route2" color="1" fill="3" visible="no" active="yes"/>
<layer number="3" name="Route3" color="4" fill="3" visible="no" active="yes"/>
<layer number="4" name="Route4" color="1" fill="4" visible="no" active="yes"/>
<layer number="5" name="Route5" color="4" fill="4" visible="no" active="yes"/>
<layer number="6" name="Route6" color="1" fill="8" visible="no" active="yes"/>
<layer number="7" name="Route7" color="4" fill="8" visible="no" active="yes"/>
<layer number="8" name="Route8" color="1" fill="2" visible="no" active="yes"/>
<layer number="9" name="Route9" color="4" fill="2" visible="no" active="yes"/>
<layer number="10" name="Route10" color="1" fill="7" visible="no" active="yes"/>
<layer number="11" name="Route11" color="4" fill="7" visible="no" active="yes"/>
<layer number="12" name="Route12" color="1" fill="5" visible="no" active="yes"/>
<layer number="13" name="Route13" color="4" fill="5" visible="no" active="yes"/>
<layer number="14" name="Route14" color="1" fill="6" visible="no" active="yes"/>
<layer number="15" name="Route15" color="4" fill="6" visible="no" active="yes"/>
<layer number="16" name="Bottom" color="1" fill="1" visible="yes" active="yes"/>
<layer number="17" name="Pads" color="2" fill="1" visible="yes" active="yes"/>
<layer number="18" name="Vias" color="2" fill="1" visible="yes" active="yes"/>
<layer number="19" name="Unrouted" color="6" fill="1" visible="yes" active="yes"/>
<layer number="20" name="Dimension" color="24" fill="1" visible="yes" active="yes"/>
<layer number="21" name="tPlace" color="7" fill="1" visible="yes" active="yes"/>
<layer number="22" name="bPlace" color="7" fill="1" visible="yes" active="yes"/>
<layer number="23" name="tOrigins" color="15" fill="1" visible="yes" active="yes"/>
<layer number="24" name="bOrigins" color="15" fill="1" visible="yes" active="yes"/>
<layer number="25" name="tNames" color="7" fill="1" visible="yes" active="yes"/>
<layer number="26" name="bNames" color="7" fill="1" visible="yes" active="yes"/>
<layer number="27" name="tValues" color="7" fill="1" visible="yes" active="yes"/>
<layer number="28" name="bValues" color="7" fill="1" visible="yes" active="yes"/>
<layer number="29" name="tStop" color="7" fill="3" visible="yes" active="yes"/>
<layer number="30" name="bStop" color="7" fill="6" visible="no" active="yes"/>
<layer number="31" name="tCream" color="7" fill="4" visible="yes" active="yes"/>
<layer number="32" name="bCream" color="7" fill="5" visible="no" active="yes"/>
<layer number="33" name="tFinish" color="6" fill="3" visible="no" active="yes"/>
<layer number="34" name="bFinish" color="6" fill="6" visible="no" active="yes"/>
<layer number="35" name="tGlue" color="7" fill="4" visible="no" active="yes"/>
<layer number="36" name="bGlue" color="7" fill="5" visible="no" active="yes"/>
<layer number="37" name="tTest" color="7" fill="1" visible="no" active="yes"/>
<layer number="38" name="bTest" color="7" fill="1" visible="no" active="yes"/>
<layer number="39" name="tKeepout" color="4" fill="11" visible="yes" active="yes"/>
<layer number="40" name="bKeepout" color="1" fill="11" visible="yes" active="yes"/>
<layer number="41" name="tRestrict" color="4" fill="10" visible="yes" active="yes"/>
<layer number="42" name="bRestrict" color="1" fill="10" visible="yes" active="yes"/>
<layer number="43" name="vRestrict" color="2" fill="10" visible="yes" active="yes"/>
<layer number="44" name="Drills" color="7" fill="1" visible="no" active="yes"/>
<layer number="45" name="Holes" color="7" fill="1" visible="no" active="yes"/>
<layer number="46" name="Milling" color="3" fill="1" visible="no" active="yes"/>
<layer number="47" name="Measures" color="7" fill="1" visible="no" active="yes"/>
<layer number="48" name="Document" color="7" fill="1" visible="yes" active="yes"/>
<layer number="49" name="Reference" color="7" fill="1" visible="yes" active="yes"/>
<layer number="51" name="tDocu" color="7" fill="1" visible="yes" active="yes"/>
<layer number="52" name="bDocu" color="7" fill="1" visible="yes" active="yes"/>
<layer number="88" name="SimResults" color="9" fill="1" visible="yes" active="yes"/>
<layer number="89" name="SimProbes" color="9" fill="1" visible="yes" active="yes"/>
<layer number="90" name="Modules" color="5" fill="1" visible="yes" active="yes"/>
<layer number="91" name="Nets" color="2" fill="1" visible="yes" active="yes"/>
<layer number="92" name="Busses" color="1" fill="1" visible="yes" active="yes"/>
<layer number="93" name="Pins" color="2" fill="1" visible="yes" active="yes"/>
<layer number="94" name="Symbols" color="4" fill="1" visible="yes" active="yes"/>
<layer number="95" name="Names" color="7" fill="1" visible="yes" active="yes"/>
<layer number="96" name="Values" color="7" fill="1" visible="yes" active="yes"/>
<layer number="97" name="Info" color="7" fill="1" visible="yes" active="yes"/>
<layer number="98" name="Guide" color="6" fill="1" visible="yes" active="yes"/>
</layers>
<library>
<packages>
<package name="SMDXO5">
<wire x1="-12.7" y1="11" x2="12.7" y2="11" width="0.127" layer="21"/>
<wire x1="12.7" y1="11" x2="12.7" y2="-11" width="0.127" layer="21"/>
<wire x1="12.7" y1="-11" x2="-12.7" y2="-11" width="0.127" layer="21"/>
<wire x1="-12.7" y1="-11" x2="-12.7" y2="11" width="0.127" layer="21"/>
<circle x="-10.16" y="8.89" radius="1.79605" width="0.127" layer="21"/>
<smd name="P$1" x="-12.25" y="8.9" dx="4" dy="3.6" layer="1"/>
<smd name="P$2" x="-12.25" y="0" dx="4" dy="3.6" layer="1"/>
<smd name="P$3" x="-12.25" y="-8.9" dx="4" dy="3.6" layer="1"/>
<smd name="P$4" x="12.25" y="-8.9" dx="4" dy="3.6" layer="1"/>
<smd name="P$5" x="12.25" y="8.9" dx="4" dy="3.6" layer="1"/>
</package>
</packages>
<symbols>
<symbol name="AOCJY">
<wire x1="-10.16" y1="2.54" x2="-10.16" y2="-2.54" width="0.254" layer="94"/>
<wire x1="-10.16" y1="-2.54" x2="0" y2="-2.54" width="0.254" layer="94"/>
<wire x1="0" y1="-2.54" x2="0" y2="2.54" width="0.254" layer="94"/>
<wire x1="0" y1="2.54" x2="-10.16" y2="2.54" width="0.254" layer="94"/>
<wire x1="-10.16" y1="5.08" x2="-5.08" y2="5.08" width="0.254" layer="94"/>
<wire x1="-5.08" y1="5.08" x2="0" y2="5.08" width="0.254" layer="94"/>
<wire x1="-10.16" y1="-5.08" x2="-5.08" y2="-5.08" width="0.254" layer="94"/>
<wire x1="-5.08" y1="-5.08" x2="0" y2="-5.08" width="0.254" layer="94"/>
<wire x1="-5.08" y1="5.08" x2="-5.08" y2="7.62" width="0.254" layer="94"/>
<wire x1="-5.08" y1="7.62" x2="7.62" y2="7.62" width="0.254" layer="94"/>
<wire x1="7.62" y1="7.62" x2="7.62" y2="2.54" width="0.254" layer="94"/>
<wire x1="7.62" y1="2.54" x2="12.7" y2="2.54" width="0.254" layer="94"/>
<wire x1="-5.08" y1="-5.08" x2="-5.08" y2="-7.62" width="0.254" layer="94"/>
<wire x1="-5.08" y1="-7.62" x2="7.62" y2="-7.62" width="0.254" layer="94"/>
<wire x1="7.62" y1="-7.62" x2="7.62" y2="-2.54" width="0.254" layer="94"/>
<wire x1="7.62" y1="-2.54" x2="12.7" y2="-2.54" width="0.254" layer="94"/>
<circle x="-25.4" y="-2.54" radius="2.54" width="0.254" layer="94"/>
<circle x="-25.4" y="0" radius="2.54" width="0.254" layer="94"/>
<circle x="-25.4" y="2.54" radius="2.54" width="0.254" layer="94"/>
<circle x="-25.4" y="5.08" radius="2.54" width="0.254" layer="94"/>
<circle x="-25.4" y="-5.08" radius="2.54" width="0.254" layer="94"/>
<wire x1="12.7" y1="7.62" x2="12.7" y2="-7.62" width="0.254" layer="94"/>
<wire x1="12.7" y1="-7.62" x2="17.78" y2="-5.08" width="0.254" layer="94"/>
<wire x1="17.78" y1="-5.08" x2="27.94" y2="0" width="0.254" layer="94"/>
<wire x1="27.94" y1="0" x2="17.78" y2="5.08" width="0.254" layer="94"/>
<wire x1="17.78" y1="5.08" x2="12.7" y2="7.62" width="0.254" layer="94"/>
<wire x1="27.94" y1="0" x2="35.56" y2="0" width="0.254" layer="94"/>
<wire x1="17.78" y1="5.08" x2="17.78" y2="12.7" width="0.254" layer="94"/>
<wire x1="17.78" y1="-5.08" x2="17.78" y2="-15.24" width="0.254" layer="94"/>
<wire x1="-15.24" y1="12.7" x2="-5.08" y2="12.7" width="0.254" layer="94"/>
<wire x1="-5.08" y1="12.7" x2="-2.54" y2="12.7" width="0.254" layer="94"/>
<wire x1="-2.54" y1="12.7" x2="17.78" y2="12.7" width="0.254" layer="94"/>
<wire x1="-2.54" y1="12.7" x2="-2.54" y2="20.32" width="0.254" layer="94"/>
<wire x1="-27.94" y1="-7.62" x2="-30.48" y2="-10.16" width="0.254" layer="94"/>
<wire x1="-15.24" y1="-15.24" x2="-2.54" y2="-15.24" width="0.254" layer="94"/>
<wire x1="-2.54" y1="-15.24" x2="17.78" y2="-15.24" width="0.254" layer="94"/>
<wire x1="-2.54" y1="-15.24" x2="-2.54" y2="-22.86" width="0.254" layer="94"/>
<wire x1="-30.48" y1="-7.62" x2="-30.48" y2="-10.16" width="0.254" layer="94"/>
<wire x1="-30.48" y1="-10.16" x2="-30.48" y2="-12.7" width="0.254" layer="94"/>
<wire x1="-33.02" y1="-10.16" x2="-30.48" y2="-10.16" width="0.254" layer="94"/>
<pin name="VCTRL" x="-35.56" y="-10.16" length="middle" direction="in"/>
<pin name="VDD" x="-2.54" y="20.32" length="middle" direction="pwr" rot="R270"/>
<pin name="RF" x="35.56" y="0" length="middle" direction="out" rot="R180"/>
<pin name="GND" x="-2.54" y="-22.86" length="middle" direction="pwr" rot="R90"/>
<wire x1="-33.02" y1="17.78" x2="-33.02" y2="10.16" width="0.254" layer="94"/>
<wire x1="-33.02" y1="10.16" x2="-33.02" y2="-20.32" width="0.254" layer="94"/>
<wire x1="-33.02" y1="-20.32" x2="33.02" y2="-20.32" width="0.254" layer="94"/>
<wire x1="33.02" y1="-20.32" x2="33.02" y2="17.78" width="0.254" layer="94"/>
<wire x1="33.02" y1="17.78" x2="-33.02" y2="17.78" width="0.254" layer="94"/>
<wire x1="-5.08" y1="7.62" x2="-5.08" y2="12.7" width="0.254" layer="94"/>
<wire x1="-27.94" y1="12.7" x2="-15.24" y2="12.7" width="0.254" layer="94"/>
<wire x1="-15.24" y1="12.7" x2="-15.24" y2="10.16" width="0.254" layer="94"/>
<wire x1="-17.78" y1="10.16" x2="-12.7" y2="10.16" width="0.254" layer="94"/>
<wire x1="-12.7" y1="10.16" x2="-12.7" y2="2.54" width="0.254" layer="94"/>
<wire x1="-12.7" y1="2.54" x2="-15.24" y2="2.54" width="0.254" layer="94"/>
<wire x1="-15.24" y1="2.54" x2="-17.78" y2="2.54" width="0.254" layer="94"/>
<wire x1="-17.78" y1="2.54" x2="-17.78" y2="10.16" width="0.254" layer="94"/>
<wire x1="-15.24" y1="2.54" x2="-15.24" y2="0" width="0.254" layer="94"/>
<wire x1="-15.24" y1="0" x2="-15.24" y2="-2.54" width="0.254" layer="94"/>
<wire x1="-17.78" y1="-2.54" x2="-12.7" y2="-2.54" width="0.254" layer="94"/>
<wire x1="-12.7" y1="-2.54" x2="-12.7" y2="-10.16" width="0.254" layer="94"/>
<wire x1="-12.7" y1="-10.16" x2="-15.24" y2="-10.16" width="0.254" layer="94"/>
<wire x1="-15.24" y1="-10.16" x2="-17.78" y2="-10.16" width="0.254" layer="94"/>
<wire x1="-17.78" y1="-10.16" x2="-17.78" y2="-2.54" width="0.254" layer="94"/>
<wire x1="-15.24" y1="-10.16" x2="-15.24" y2="-15.24" width="0.254" layer="94"/>
<wire x1="-27.94" y1="-15.24" x2="-15.24" y2="-15.24" width="0.254" layer="94"/>
<wire x1="-30.48" y1="-10.16" x2="-27.94" y2="-12.7" width="0.254" layer="94"/>
<wire x1="-27.94" y1="-12.7" x2="-27.94" y2="-15.24" width="0.254" layer="94"/>
<wire x1="-27.94" y1="-7.62" x2="-27.94" y2="12.7" width="0.254" layer="94"/>
<wire x1="-15.24" y1="0" x2="-20.32" y2="0" width="0.254" layer="94"/>
<wire x1="-20.32" y1="0" x2="-20.32" y2="10.16" width="0.254" layer="94"/>
<wire x1="-20.32" y1="10.16" x2="-33.02" y2="10.16" width="0.254" layer="94"/>
<pin name="VREF" x="-35.56" y="10.16" length="middle" direction="out"/>
</symbol>
</symbols>
<devicesets>
<deviceset name="AOCJY1">
<gates>
</gates>
<devices>
<device name="">
<technologies>
<technology name=""/>
</technologies>
</device>
</devices>
</deviceset>
<deviceset name="AOCJY">
<description>Abracon AOCJY SMD Oven-Controlled Crystal Oscillator</description>
<gates>
<gate name="G$1" symbol="AOCJY" x="0" y="0"/>
</gates>
<devices>
<device name="" package="SMDXO5">
<connects>
<connect gate="G$1" pin="GND" pad="P$5"/>
<connect gate="G$1" pin="RF" pad="P$4"/>
<connect gate="G$1" pin="VCTRL" pad="P$1"/>
<connect gate="G$1" pin="VDD" pad="P$3"/>
<connect gate="G$1" pin="VREF" pad="P$2"/>
</connects>
<technologies>
<technology name=""/>
</technologies>
</device>
</devices>
</deviceset>
</devicesets>
</library>
</drawing>
</eagle>
