G04 EAGLE Gerber RS-274X export*
G75*
%MOMM*%
%FSLAX34Y34*%
%LPD*%
%INSoldermask Top*%
%IPPOS*%
%AMOC8*
5,1,8,0,0,1.08239X$1,22.5*%
G01*
%ADD10R,1.703200X1.503200*%
%ADD11R,2.703200X2.153200*%
%ADD12R,1.503200X1.703200*%
%ADD13P,2.254402X8X292.500000*%
%ADD14P,2.254402X8X22.500000*%
%ADD15P,2.254402X8X112.500000*%
%ADD16P,2.254402X8X202.500000*%
%ADD17R,1.498600X1.193800*%
%ADD18R,0.508000X1.193800*%
%ADD19R,3.803200X4.203200*%
%ADD20C,2.146300*%
%ADD21C,1.473200*%
%ADD22P,1.869504X8X292.500000*%
%ADD23C,1.727200*%
%ADD24C,0.959600*%


D10*
X939800Y728100D03*
X939800Y745100D03*
D11*
X914400Y727700D03*
X914400Y758200D03*
D12*
X969400Y342900D03*
X986400Y342900D03*
D11*
X806450Y920105D03*
X806450Y950605D03*
D10*
X781050Y920505D03*
X781050Y937505D03*
D12*
X814950Y819150D03*
X797950Y819150D03*
D11*
X895350Y269250D03*
X895350Y238750D03*
D10*
X920750Y268850D03*
X920750Y251850D03*
D12*
X880500Y374650D03*
X897500Y374650D03*
D10*
X1092200Y728100D03*
X1092200Y745100D03*
D13*
X152400Y552450D03*
X127000Y552450D03*
X152400Y527050D03*
X127000Y527050D03*
X152400Y501650D03*
X127000Y501650D03*
X241300Y171450D03*
X266700Y171450D03*
X241300Y146050D03*
X266700Y146050D03*
X241300Y120650D03*
X266700Y120650D03*
D14*
X1016000Y279400D03*
X1016000Y304800D03*
X1041400Y279400D03*
X1041400Y304800D03*
X1066800Y279400D03*
X1066800Y304800D03*
X1016000Y336550D03*
X1016000Y361950D03*
X1041400Y336550D03*
X1041400Y361950D03*
X1066800Y336550D03*
X1066800Y361950D03*
X1016000Y393700D03*
X1016000Y419100D03*
X1041400Y393700D03*
X1041400Y419100D03*
X1066800Y393700D03*
X1066800Y419100D03*
D15*
X127000Y412750D03*
X152400Y412750D03*
X127000Y438150D03*
X152400Y438150D03*
X127000Y463550D03*
X152400Y463550D03*
D16*
X723900Y971550D03*
X723900Y946150D03*
X698500Y971550D03*
X698500Y946150D03*
X673100Y971550D03*
X673100Y946150D03*
X723900Y914400D03*
X723900Y889000D03*
X698500Y914400D03*
X698500Y889000D03*
X673100Y914400D03*
X673100Y889000D03*
X723900Y857250D03*
X723900Y831850D03*
X698500Y857250D03*
X698500Y831850D03*
X673100Y857250D03*
X673100Y831850D03*
D13*
X533400Y171450D03*
X558800Y171450D03*
X533400Y146050D03*
X558800Y146050D03*
X533400Y120650D03*
X558800Y120650D03*
D17*
X762000Y923925D03*
X762000Y908685D03*
X939800Y265430D03*
X939800Y280670D03*
D12*
X1068950Y730250D03*
X1051950Y730250D03*
D10*
X1117600Y745100D03*
X1117600Y728100D03*
D12*
X986400Y368300D03*
X969400Y368300D03*
D10*
X946150Y345050D03*
X946150Y328050D03*
D12*
X967350Y393700D03*
X950350Y393700D03*
X897500Y400050D03*
X880500Y400050D03*
D10*
X925830Y413630D03*
X925830Y396630D03*
D18*
X829350Y892778D03*
X822850Y892778D03*
X816350Y892778D03*
X809850Y892778D03*
X803350Y892778D03*
X796850Y892778D03*
X790350Y892778D03*
X783850Y892778D03*
X777350Y892778D03*
X770850Y892778D03*
X770850Y834422D03*
X777350Y834422D03*
X783850Y834422D03*
X790350Y834422D03*
X796850Y834422D03*
X803350Y834422D03*
X809850Y834422D03*
X816350Y834422D03*
X822850Y834422D03*
X829350Y834422D03*
X872450Y301022D03*
X878950Y301022D03*
X885450Y301022D03*
X891950Y301022D03*
X898450Y301022D03*
X904950Y301022D03*
X911450Y301022D03*
X917950Y301022D03*
X924450Y301022D03*
X930950Y301022D03*
X930950Y359378D03*
X924450Y359378D03*
X917950Y359378D03*
X911450Y359378D03*
X904950Y359378D03*
X898450Y359378D03*
X891950Y359378D03*
X885450Y359378D03*
X878950Y359378D03*
X872450Y359378D03*
D19*
X1105000Y694000D03*
X1016000Y694000D03*
X927000Y694000D03*
X927000Y449000D03*
X1105000Y449000D03*
D20*
X546100Y292100D03*
X596900Y241300D03*
X596900Y342900D03*
X495300Y342900D03*
X495300Y241300D03*
X361950Y946150D03*
X311150Y895350D03*
X412750Y895350D03*
X412750Y996950D03*
X311150Y996950D03*
X488950Y774700D03*
X438150Y723900D03*
X539750Y723900D03*
X539750Y825500D03*
X438150Y825500D03*
X361950Y622300D03*
X311150Y571500D03*
X412750Y571500D03*
X412750Y673100D03*
X311150Y673100D03*
X488950Y444500D03*
X438150Y393700D03*
X539750Y393700D03*
X539750Y495300D03*
X438150Y495300D03*
X254000Y292100D03*
X304800Y241300D03*
X304800Y342900D03*
X203200Y342900D03*
X203200Y241300D03*
X95250Y139700D03*
X146050Y88900D03*
X146050Y190500D03*
X44450Y190500D03*
X44450Y88900D03*
X393700Y139700D03*
X444500Y88900D03*
X444500Y190500D03*
X342900Y190500D03*
X342900Y88900D03*
D21*
X742950Y767207D03*
X712470Y223393D03*
D22*
X736600Y171450D03*
X762000Y171450D03*
X736600Y146050D03*
X762000Y146050D03*
X736600Y120650D03*
X762000Y120650D03*
D23*
X762000Y90170D02*
X762000Y74930D01*
X736600Y74930D02*
X736600Y90170D01*
D24*
X990600Y228600D03*
X958850Y228600D03*
X920750Y228600D03*
X939800Y247650D03*
X990600Y260350D03*
X958850Y273050D03*
X990600Y298450D03*
X988695Y381635D03*
X977900Y412750D03*
X952500Y412750D03*
X939800Y412750D03*
X977900Y431800D03*
X952500Y431800D03*
X915035Y372110D03*
X812800Y222250D03*
X673100Y431800D03*
X812800Y469900D03*
X673100Y768350D03*
X812800Y768350D03*
X673100Y222250D03*
X787400Y958850D03*
X762000Y939800D03*
X831850Y939800D03*
X673100Y292100D03*
X673100Y488950D03*
X63500Y349250D03*
X95250Y349250D03*
X285750Y501650D03*
X311150Y463550D03*
X342900Y438150D03*
X419100Y431800D03*
X666750Y660400D03*
X666750Y631825D03*
X695960Y631825D03*
X666750Y603250D03*
X419100Y749300D03*
X419100Y762000D03*
X400050Y838200D03*
X558800Y958850D03*
X558800Y933450D03*
X533400Y933450D03*
X514350Y914400D03*
X546100Y914400D03*
X533400Y889000D03*
X558800Y889000D03*
X57150Y508000D03*
X88900Y508000D03*
X57150Y463550D03*
X88900Y463550D03*
X88900Y425450D03*
X742950Y457200D03*
X774700Y222250D03*
X787400Y247650D03*
X812800Y247650D03*
X812800Y317500D03*
X673100Y342900D03*
X812800Y425450D03*
X673100Y533400D03*
X812800Y584200D03*
X927100Y317500D03*
X901700Y317500D03*
X901700Y342900D03*
X869950Y317500D03*
X857250Y336550D03*
X857250Y381000D03*
X857250Y431800D03*
X882650Y431800D03*
X939800Y298450D03*
X958850Y298450D03*
X965200Y323850D03*
X831850Y819150D03*
X831850Y787400D03*
X647700Y247650D03*
X127000Y361950D03*
X139700Y342900D03*
X158750Y361950D03*
X361950Y349250D03*
X381000Y349250D03*
X96520Y631190D03*
X234950Y222250D03*
X266700Y222250D03*
X234950Y196850D03*
X266700Y196850D03*
X527050Y222250D03*
X558800Y222250D03*
X527050Y196850D03*
X558800Y196850D03*
X82550Y590550D03*
X82550Y577850D03*
X101600Y584200D03*
X120650Y590550D03*
X133350Y577850D03*
X342900Y476250D03*
X349250Y463550D03*
X469900Y673100D03*
X469900Y654050D03*
X488950Y673100D03*
X488950Y654050D03*
X336550Y793750D03*
X336550Y768350D03*
X488950Y996950D03*
X488950Y977900D03*
X469900Y996950D03*
X469900Y977900D03*
X771088Y793750D03*
X762000Y793750D03*
X863676Y819226D03*
X857250Y812800D03*
X127000Y615950D03*
X495463Y914563D03*
X127000Y606862D03*
X374650Y850900D03*
X177800Y596900D03*
X488950Y586966D03*
X831850Y438150D03*
X831774Y425374D03*
X844550Y450850D03*
X844550Y463550D03*
M02*
